88.71.190.90 - - [01/Oct/2013:07:42:05 +0200] "GET /TEI-conf/net/ HTTP/1.1" 200 1474 "http://fontane_nb.dariah.eu/TEI-conf/" "Mozilla/5.0 (Android; Tablet; rv:23.0) Gecko/23.0 Firefox/23.0"
88.71.190.90 - - [01/Oct/2013:07:42:05 +0200] "GET /TEI-conf/net/d3.v3.js HTTP/1.1" 200 314783 "http://fontane_nb.dariah.eu/TEI-conf/net/" "Mozilla/5.0 (Android; Tablet; rv:23.0) Gecko/23.0 Firefox/23.0"
88.71.190.90 - - [01/Oct/2013:07:42:06 +0200] "GET /TEI-conf/net/c07.json HTTP/1.1" 200 40459 "http://fontane_nb.dariah.eu/TEI-conf/net/" "Mozilla/5.0 (Android; Tablet; rv:23.0) Gecko/23.0 Firefox/23.0"
134.76.162.165 - - [01/Oct/2013:10:39:50 +0200] "GET /TEI-conf/net/ HTTP/1.1" 200 1474 "http://fontane-nb.dariah.eu/TEI-conf/" "Mozilla/5.0 (X11; Linux x86_64; rv:17.0) Gecko/20130917 Firefox/17.0 Iceweasel/17.0.9"
134.76.162.165 - - [01/Oct/2013:10:39:50 +0200] "GET /TEI-conf/net/d3.v3.js HTTP/1.1" 200 314783 "http://fontane-nb.dariah.eu/TEI-conf/net/" "Mozilla/5.0 (X11; Linux x86_64; rv:17.0) Gecko/20130917 Firefox/17.0 Iceweasel/17.0.9"
134.76.162.165 - - [01/Oct/2013:10:39:50 +0200] "GET /TEI-conf/net/c07.json HTTP/1.1" 200 40459 "http://fontane-nb.dariah.eu/TEI-conf/net/" "Mozilla/5.0 (X11; Linux x86_64; rv:17.0) Gecko/20130917 Firefox/17.0 Iceweasel/17.0.9"
93.40.119.190 - - [01/Oct/2013:22:51:28 +0200] "GET /TEI-conf/net/ HTTP/1.1" 200 1474 "http://fontane_nb.dariah.eu/TEI-conf/" "Mozilla/5.0 (Android; Tablet; rv:23.0) Gecko/23.0 Firefox/23.0"
93.40.119.190 - - [01/Oct/2013:22:51:28 +0200] "GET /TEI-conf/net/d3.v3.js HTTP/1.1" 200 314783 "http://fontane_nb.dariah.eu/TEI-conf/net/" "Mozilla/5.0 (Android; Tablet; rv:23.0) Gecko/23.0 Firefox/23.0"
93.40.119.190 - - [01/Oct/2013:22:51:30 +0200] "GET /TEI-conf/net/c07.json HTTP/1.1" 200 40459 "http://fontane_nb.dariah.eu/TEI-conf/net/" "Mozilla/5.0 (Android; Tablet; rv:23.0) Gecko/23.0 Firefox/23.0"
134.76.2.78 - - [02/Oct/2013:12:35:46 +0200] "GET /TEI-conf/net/graphml.xsl HTTP/1.1" 200 11159 "http://fontane-nb.dariah.eu/TEI-conf/" "Mozilla/5.0 (X11; Linux i686) AppleWebKit/537.36 (KHTML, like Gecko) Ubuntu Chromium/28.0.1500.71 Chrome/28.0.1500.71 Safari/537.36"
134.76.2.78 - - [02/Oct/2013:12:35:53 +0200] "GET /TEI-conf/net/graphml2json.xsl HTTP/1.1" 200 3542 "http://fontane-nb.dariah.eu/TEI-conf/" "Mozilla/5.0 (X11; Linux i686) AppleWebKit/537.36 (KHTML, like Gecko) Ubuntu Chromium/28.0.1500.71 Chrome/28.0.1500.71 Safari/537.36"
93.40.119.190 - - [03/Oct/2013:20:01:44 +0200] "GET /TEI-conf/net/ HTTP/1.1" 200 1474 "http://fontane-nb.dariah.eu/TEI-conf/" "Mozilla/5.0 (X11; Linux i686) AppleWebKit/537.36 (KHTML, like Gecko) Ubuntu Chromium/28.0.1500.71 Chrome/28.0.1500.71 Safari/537.36"
93.40.119.190 - - [03/Oct/2013:20:01:45 +0200] "GET /TEI-conf/net/d3.v3.js HTTP/1.1" 200 314783 "http://fontane-nb.dariah.eu/TEI-conf/net/" "Mozilla/5.0 (X11; Linux i686) AppleWebKit/537.36 (KHTML, like Gecko) Ubuntu Chromium/28.0.1500.71 Chrome/28.0.1500.71 Safari/537.36"
93.40.119.190 - - [03/Oct/2013:20:01:45 +0200] "GET /TEI-conf/net/c07.json HTTP/1.1" 200 40459 "http://fontane-nb.dariah.eu/TEI-conf/net/" "Mozilla/5.0 (X11; Linux i686) AppleWebKit/537.36 (KHTML, like Gecko) Ubuntu Chromium/28.0.1500.71 Chrome/28.0.1500.71 Safari/537.36"
151.100.102.125 - - [04/Oct/2013:10:03:27 +0200] "GET /tei-conf/net/ HTTP/1.1" 200 1474 "http://fontane_nb.dariah.eu/tei-conf/" "Mozilla/5.0 (Linux; Android 4.2.1; Nexus 10 Build/JOP40D) AppleWebKit/537.36 (KHTML, like Gecko) Chrome/30.0.1599.82 Safari/537.36"
151.100.102.125 - - [04/Oct/2013:10:03:27 +0200] "GET /tei-conf/net/d3.v3.js HTTP/1.1" 200 314783 "http://fontane_nb.dariah.eu/tei-conf/net/" "Mozilla/5.0 (Linux; Android 4.2.1; Nexus 10 Build/JOP40D) AppleWebKit/537.36 (KHTML, like Gecko) Chrome/30.0.1599.82 Safari/537.36"
151.100.102.125 - - [04/Oct/2013:10:03:29 +0200] "GET /tei-conf/net/c07.json HTTP/1.1" 200 40459 "http://fontane_nb.dariah.eu/tei-conf/net/" "Mozilla/5.0 (Linux; Android 4.2.1; Nexus 10 Build/JOP40D) AppleWebKit/537.36 (KHTML, like Gecko) Chrome/30.0.1599.82 Safari/537.36"
91.60.188.137 - - [04/Oct/2013:14:01:27 +0200] "GET /tei-conf/net/graphml2json.xsl HTTP/1.1" 200 3542 "http://fontane-nb.dariah.eu/tei-conf/" "Mozilla/5.0 (Windows NT 6.1; WOW64; rv:24.0) Gecko/20100101 Firefox/24.0"
91.60.188.137 - - [04/Oct/2013:14:01:29 +0200] "GET /tei-conf/net/ HTTP/1.1" 200 1474 "http://fontane-nb.dariah.eu/tei-conf/" "Mozilla/5.0 (Windows NT 6.1; WOW64; rv:24.0) Gecko/20100101 Firefox/24.0"
91.60.188.137 - - [04/Oct/2013:14:01:30 +0200] "GET /tei-conf/net/d3.v3.js HTTP/1.1" 200 314783 "http://fontane-nb.dariah.eu/tei-conf/net/" "Mozilla/5.0 (Windows NT 6.1; WOW64; rv:24.0) Gecko/20100101 Firefox/24.0"
91.60.188.137 - - [04/Oct/2013:14:01:30 +0200] "GET /tei-conf/net/c07.json HTTP/1.1" 200 40459 "http://fontane-nb.dariah.eu/tei-conf/net/" "Mozilla/5.0 (Windows NT 6.1; WOW64; rv:24.0) Gecko/20100101 Firefox/24.0"
151.100.102.125 - - [04/Oct/2013:14:18:24 +0200] "GET /tei-conf/net/ HTTP/1.1" 200 1474 "http://fontane-nb.dariah.eu/tei-conf/" "Mozilla/5.0 (Android; Tablet; rv:24.0) Gecko/24.0 Firefox/24.0"
151.100.102.125 - - [04/Oct/2013:14:18:24 +0200] "GET /tei-conf/net/d3.v3.js HTTP/1.1" 200 314783 "http://fontane-nb.dariah.eu/tei-conf/net/" "Mozilla/5.0 (Android; Tablet; rv:24.0) Gecko/24.0 Firefox/24.0"
151.100.102.125 - - [04/Oct/2013:14:18:25 +0200] "GET /tei-conf/net/c07.json HTTP/1.1" 200 40459 "http://fontane-nb.dariah.eu/tei-conf/net/" "Mozilla/5.0 (Android; Tablet; rv:24.0) Gecko/24.0 Firefox/24.0"
151.100.102.125 - - [04/Oct/2013:14:33:16 +0200] "GET /tei-conf/net/ HTTP/1.1" 200 1474 "http://fontane-nb.dariah.eu/tei-conf/" "Mozilla/5.0 (Windows NT 6.1; WOW64; rv:24.0) Gecko/20100101 Firefox/24.0"
151.100.102.125 - - [04/Oct/2013:14:33:16 +0200] "GET /tei-conf/net/d3.v3.js HTTP/1.1" 200 314783 "http://fontane-nb.dariah.eu/tei-conf/net/" "Mozilla/5.0 (Windows NT 6.1; WOW64; rv:24.0) Gecko/20100101 Firefox/24.0"
151.100.102.125 - - [04/Oct/2013:14:33:17 +0200] "GET /tei-conf/net/c07.json HTTP/1.1" 200 40459 "http://fontane-nb.dariah.eu/tei-conf/net/" "Mozilla/5.0 (Windows NT 6.1; WOW64; rv:24.0) Gecko/20100101 Firefox/24.0"
151.100.102.125 - - [04/Oct/2013:14:33:27 +0200] "GET /tei-conf/net/ HTTP/1.1" 200 1474 "http://fontane-nb.dariah.eu/tei-conf/" "Mozilla/5.0 (Windows NT 6.1; rv:23.0) Gecko/20100101 Firefox/23.0"
151.100.102.125 - - [04/Oct/2013:14:33:28 +0200] "GET /tei-conf/net/d3.v3.js HTTP/1.1" 200 314783 "http://fontane-nb.dariah.eu/tei-conf/net/" "Mozilla/5.0 (Windows NT 6.1; rv:23.0) Gecko/20100101 Firefox/23.0"
151.100.102.125 - - [04/Oct/2013:14:33:28 +0200] "GET /tei-conf/net/c07.json HTTP/1.1" 200 40459 "http://fontane-nb.dariah.eu/tei-conf/net/" "Mozilla/5.0 (Windows NT 6.1; rv:23.0) Gecko/20100101 Firefox/23.0"
151.100.168.5 - - [04/Oct/2013:14:35:26 +0200] "GET /TEI-conf/net/ HTTP/1.1" 200 1474 "http://fontane_nb.dariah.eu/TEI-conf/" "Mozilla/5.0 (Windows NT 5.1) AppleWebKit/537.36 (KHTML, like Gecko) Chrome/30.0.1599.66 Safari/537.36"
151.100.168.5 - - [04/Oct/2013:14:35:26 +0200] "GET /TEI-conf/net/d3.v3.js HTTP/1.1" 200 314783 "http://fontane_nb.dariah.eu/TEI-conf/net/" "Mozilla/5.0 (Windows NT 5.1) AppleWebKit/537.36 (KHTML, like Gecko) Chrome/30.0.1599.66 Safari/537.36"
151.100.168.5 - - [04/Oct/2013:14:35:27 +0200] "GET /TEI-conf/net/c07.json HTTP/1.1" 200 40459 "http://fontane_nb.dariah.eu/TEI-conf/net/" "Mozilla/5.0 (Windows NT 5.1) AppleWebKit/537.36 (KHTML, like Gecko) Chrome/30.0.1599.66 Safari/537.36"
151.100.102.125 - - [04/Oct/2013:14:36:06 +0200] "GET /tei-conf/net/ HTTP/1.1" 304 - "http://fontane-nb.dariah.eu/tei-conf/" "Mozilla/5.0 (Windows NT 6.1; WOW64; rv:24.0) Gecko/20100101 Firefox/24.0"
151.100.102.125 - - [04/Oct/2013:14:36:06 +0200] "GET /tei-conf/net/d3.v3.js HTTP/1.1" 304 - "http://fontane-nb.dariah.eu/tei-conf/net/" "Mozilla/5.0 (Windows NT 6.1; WOW64; rv:24.0) Gecko/20100101 Firefox/24.0"
151.100.102.125 - - [04/Oct/2013:14:36:06 +0200] "GET /tei-conf/net/c07.json HTTP/1.1" 304 - "http://fontane-nb.dariah.eu/tei-conf/net/" "Mozilla/5.0 (Windows NT 6.1; WOW64; rv:24.0) Gecko/20100101 Firefox/24.0"
151.100.102.125 - - [04/Oct/2013:14:37:17 +0200] "GET /js/vis/net/ HTTP/1.1" 200 1678 "-" "Mozilla/5.0 (X11; Linux i686; rv:24.0) Gecko/20100101 Firefox/24.0"
151.100.102.125 - - [04/Oct/2013:14:37:31 +0200] "GET /tei-conf/net/graphml.xsl HTTP/1.1" 200 11159 "http://fontane-nb.dariah.eu/tei-conf/" "Mozilla/5.0 (Windows NT 6.1; rv:23.0) Gecko/20100101 Firefox/23.0"
151.100.102.125 - - [04/Oct/2013:14:40:04 +0200] "GET /TEI-conf/net/ HTTP/1.1" 200 1474 "http://fontane_nb.dariah.eu/TEI-conf/" "Mozilla/5.0 (X11; Linux i686) AppleWebKit/537.36 (KHTML, like Gecko) Ubuntu Chromium/28.0.1500.71 Chrome/28.0.1500.71 Safari/537.36"
151.100.102.125 - - [04/Oct/2013:14:40:05 +0200] "GET /TEI-conf/net/d3.v3.js HTTP/1.1" 200 314783 "http://fontane_nb.dariah.eu/TEI-conf/net/" "Mozilla/5.0 (X11; Linux i686) AppleWebKit/537.36 (KHTML, like Gecko) Ubuntu Chromium/28.0.1500.71 Chrome/28.0.1500.71 Safari/537.36"
151.100.102.125 - - [04/Oct/2013:14:40:06 +0200] "GET /TEI-conf/net/c07.json HTTP/1.1" 200 40459 "http://fontane_nb.dariah.eu/TEI-conf/net/" "Mozilla/5.0 (X11; Linux i686) AppleWebKit/537.36 (KHTML, like Gecko) Ubuntu Chromium/28.0.1500.71 Chrome/28.0.1500.71 Safari/537.36"
93.233.74.130 - - [04/Oct/2013:14:43:49 +0200] "GET /tei-conf/net/ HTTP/1.1" 200 1474 "http://fontane-nb.dariah.eu/tei-conf/" "Mozilla/5.0 (Windows NT 6.1; WOW64; rv:24.0) Gecko/20100101 Firefox/24.0 AlexaToolbar/amznf-3.0.20121130"
93.233.74.130 - - [04/Oct/2013:14:43:49 +0200] "GET /tei-conf/net/d3.v3.js HTTP/1.1" 200 314783 "http://fontane-nb.dariah.eu/tei-conf/net/" "Mozilla/5.0 (Windows NT 6.1; WOW64; rv:24.0) Gecko/20100101 Firefox/24.0 AlexaToolbar/amznf-3.0.20121130"
93.233.74.130 - - [04/Oct/2013:14:43:50 +0200] "GET /tei-conf/net/c07.json HTTP/1.1" 200 40459 "http://fontane-nb.dariah.eu/tei-conf/net/" "Mozilla/5.0 (Windows NT 6.1; WOW64; rv:24.0) Gecko/20100101 Firefox/24.0 AlexaToolbar/amznf-3.0.20121130"
193.239.220.248 - - [04/Oct/2013:14:44:27 +0200] "GET /tei-conf/net/ HTTP/1.1" 200 1474 "http://fontane-nb.dariah.eu/tei-conf/" "Mozilla/5.0 (iPad; CPU OS 7_0_2 like Mac OS X) AppleWebKit/537.51.1 (KHTML, like Gecko) Mobile/11A501"
193.239.220.248 - - [04/Oct/2013:14:44:27 +0200] "GET /tei-conf/net/d3.v3.js HTTP/1.1" 200 314783 "http://fontane-nb.dariah.eu/tei-conf/net/" "Mozilla/5.0 (iPad; CPU OS 7_0_2 like Mac OS X) AppleWebKit/537.51.1 (KHTML, like Gecko) Mobile/11A501"
193.239.220.248 - - [04/Oct/2013:14:44:27 +0200] "GET /tei-conf/net/c07.json HTTP/1.1" 200 40459 "http://fontane-nb.dariah.eu/tei-conf/net/" "Mozilla/5.0 (iPad; CPU OS 7_0_2 like Mac OS X) AppleWebKit/537.51.1 (KHTML, like Gecko) Mobile/11A501"
86.184.145.85 - - [04/Oct/2013:16:17:39 +0200] "GET /tei-conf/net/ HTTP/1.1" 200 1474 "http://fontane-nb.dariah.eu/tei-conf/" "Mozilla/5.0 (X11; Ubuntu; Linux i686; rv:24.0) Gecko/20100101 Firefox/24.0"
86.184.145.85 - - [04/Oct/2013:16:17:40 +0200] "GET /tei-conf/net/d3.v3.js HTTP/1.1" 200 314783 "http://fontane-nb.dariah.eu/tei-conf/net/" "Mozilla/5.0 (X11; Ubuntu; Linux i686; rv:24.0) Gecko/20100101 Firefox/24.0"
86.184.145.85 - - [04/Oct/2013:16:17:40 +0200] "GET /tei-conf/net/c07.json HTTP/1.1" 200 40459 "http://fontane-nb.dariah.eu/tei-conf/net/" "Mozilla/5.0 (X11; Ubuntu; Linux i686; rv:24.0) Gecko/20100101 Firefox/24.0"
151.100.102.125 - - [04/Oct/2013:17:17:03 +0200] "GET /tei-conf/net/ HTTP/1.1" 200 1474 "http://fontane-nb.dariah.eu/tei-conf/" "Mozilla/5.0 (iPad; CPU OS 6_1_3 like Mac OS X) AppleWebKit/536.26 (KHTML, like Gecko) Version/6.0 Mobile/10B329 Safari/8536.25"
151.100.102.125 - - [04/Oct/2013:17:17:03 +0200] "GET /tei-conf/net/d3.v3.js HTTP/1.1" 200 314783 "http://fontane-nb.dariah.eu/tei-conf/net/" "Mozilla/5.0 (iPad; CPU OS 6_1_3 like Mac OS X) AppleWebKit/536.26 (KHTML, like Gecko) Version/6.0 Mobile/10B329 Safari/8536.25"
151.100.102.125 - - [04/Oct/2013:17:17:03 +0200] "GET /tei-conf/net/c07.json HTTP/1.1" 200 40459 "http://fontane-nb.dariah.eu/tei-conf/net/" "Mozilla/5.0 (iPad; CPU OS 6_1_3 like Mac OS X) AppleWebKit/536.26 (KHTML, like Gecko) Version/6.0 Mobile/10B329 Safari/8536.25"
151.100.102.125 - - [04/Oct/2013:17:29:37 +0200] "GET /tei-conf/net/ HTTP/1.1" 304 - "-" "Mozilla/5.0 (iPad; CPU OS 6_1_3 like Mac OS X) AppleWebKit/536.26 (KHTML, like Gecko) Version/6.0 Mobile/10B329 Safari/8536.25"
151.100.102.125 - - [04/Oct/2013:17:29:37 +0200] "GET /tei-conf/net/d3.v3.js HTTP/1.1" 304 - "http://fontane-nb.dariah.eu/tei-conf/net/" "Mozilla/5.0 (iPad; CPU OS 6_1_3 like Mac OS X) AppleWebKit/536.26 (KHTML, like Gecko) Version/6.0 Mobile/10B329 Safari/8536.25"
151.100.102.125 - - [04/Oct/2013:17:29:37 +0200] "GET /tei-conf/net/c07.json HTTP/1.1" 304 - "http://fontane-nb.dariah.eu/tei-conf/net/" "Mozilla/5.0 (iPad; CPU OS 6_1_3 like Mac OS X) AppleWebKit/536.26 (KHTML, like Gecko) Version/6.0 Mobile/10B329 Safari/8536.25"
66.249.75.15 - - [05/Oct/2013:13:30:06 +0200] "GET /tei-conf/net/graphml2json.xsl HTTP/1.1" 200 3542 "-" "Mozilla/5.0 (compatible; Googlebot/2.1; +http://www.google.com/bot.html)"
66.249.75.15 - - [05/Oct/2013:13:30:41 +0200] "GET /tei-conf/net/ HTTP/1.1" 200 1474 "-" "Mozilla/5.0 (compatible; Googlebot/2.1; +http://www.google.com/bot.html)"
66.249.75.15 - - [05/Oct/2013:13:35:50 +0200] "GET /tei-conf/net/graphml.xsl HTTP/1.1" 200 11159 "-" "Mozilla/5.0 (compatible; Googlebot/2.1; +http://www.google.com/bot.html)"
92.225.140.204 - - [05/Oct/2013:20:09:26 +0200] "GET /tei-conf/net/ HTTP/1.1" 200 1474 "http://fontane-nb.dariah.eu/tei-conf/" "Mozilla/5.0 (Windows NT 6.2; WOW64; rv:24.0) Gecko/20100101 Firefox/24.0"
92.225.140.204 - - [05/Oct/2013:20:09:26 +0200] "GET /tei-conf/net/d3.v3.js HTTP/1.1" 200 314783 "http://fontane-nb.dariah.eu/tei-conf/net/" "Mozilla/5.0 (Windows NT 6.2; WOW64; rv:24.0) Gecko/20100101 Firefox/24.0"
92.225.140.204 - - [05/Oct/2013:20:09:28 +0200] "GET /tei-conf/net/c07.json HTTP/1.1" 200 40459 "http://fontane-nb.dariah.eu/tei-conf/net/" "Mozilla/5.0 (Windows NT 6.2; WOW64; rv:24.0) Gecko/20100101 Firefox/24.0"
193.204.146.61 - - [05/Oct/2013:20:33:55 +0200] "GET /tei-conf/net/ HTTP/1.1" 200 1474 "http://fontane-nb.dariah.eu/tei-conf/" "Mozilla/5.0 (Macintosh; Intel Mac OS X 10_7_5) AppleWebKit/537.36 (KHTML, like Gecko) Chrome/30.0.1599.69 Safari/537.36"
193.204.146.61 - - [05/Oct/2013:20:33:55 +0200] "GET /tei-conf/net/d3.v3.js HTTP/1.1" 200 314783 "http://fontane-nb.dariah.eu/tei-conf/net/" "Mozilla/5.0 (Macintosh; Intel Mac OS X 10_7_5) AppleWebKit/537.36 (KHTML, like Gecko) Chrome/30.0.1599.69 Safari/537.36"
193.204.146.61 - - [05/Oct/2013:20:34:00 +0200] "GET /tei-conf/net/c07.json HTTP/1.1" 200 40459 "http://fontane-nb.dariah.eu/tei-conf/net/" "Mozilla/5.0 (Macintosh; Intel Mac OS X 10_7_5) AppleWebKit/537.36 (KHTML, like Gecko) Chrome/30.0.1599.69 Safari/537.36"
92.154.24.92 - - [06/Oct/2013:13:24:04 +0200] "GET /tei-conf/net/ HTTP/1.1" 200 1474 "http://fontane-nb.dariah.eu/tei-conf/" "Mozilla/5.0 (Macintosh; Intel Mac OS X 10.8; rv:24.0) Gecko/20100101 Firefox/24.0"
92.154.24.92 - - [06/Oct/2013:13:24:04 +0200] "GET /tei-conf/net/d3.v3.js HTTP/1.1" 200 314783 "http://fontane-nb.dariah.eu/tei-conf/net/" "Mozilla/5.0 (Macintosh; Intel Mac OS X 10.8; rv:24.0) Gecko/20100101 Firefox/24.0"
92.154.24.92 - - [06/Oct/2013:13:24:05 +0200] "GET /tei-conf/net/c07.json HTTP/1.1" 200 40459 "http://fontane-nb.dariah.eu/tei-conf/net/" "Mozilla/5.0 (Macintosh; Intel Mac OS X 10.8; rv:24.0) Gecko/20100101 Firefox/24.0"
92.154.24.92 - - [06/Oct/2013:13:24:10 +0200] "GET /tei-conf/net/graphml.xsl HTTP/1.1" 200 11159 "http://fontane-nb.dariah.eu/tei-conf/" "Mozilla/5.0 (Macintosh; Intel Mac OS X 10.8; rv:24.0) Gecko/20100101 Firefox/24.0"
92.154.24.92 - - [06/Oct/2013:13:25:40 +0200] "GET /tei-conf/net/graphml.xsl HTTP/1.1" 304 - "http://fontane-nb.dariah.eu/tei-conf/" "Mozilla/5.0 (Macintosh; Intel Mac OS X 10.8; rv:24.0) Gecko/20100101 Firefox/24.0"
92.154.24.92 - - [06/Oct/2013:13:28:21 +0200] "GET /tei-conf/net/graphml.xsl HTTP/1.1" 304 - "http://fontane-nb.dariah.eu/tei-conf/" "Mozilla/5.0 (Macintosh; Intel Mac OS X 10.8; rv:24.0) Gecko/20100101 Firefox/24.0"
92.154.24.92 - - [06/Oct/2013:13:28:33 +0200] "GET /tei-conf/net/graphml2json.xsl HTTP/1.1" 200 3542 "http://fontane-nb.dariah.eu/tei-conf/" "Mozilla/5.0 (Macintosh; Intel Mac OS X 10.8; rv:24.0) Gecko/20100101 Firefox/24.0"
66.249.75.15 - - [07/Oct/2013:16:37:42 +0200] "GET /tei-conf/net/ HTTP/1.1" 200 1474 "-" "Mozilla/5.0 (compatible; Googlebot/2.1; +http://www.google.com/bot.html)"
194.95.188.5 - - [08/Oct/2013:16:40:32 +0200] "GET /tei-conf/net/ HTTP/1.1" 200 1474 "http://fontane-nb.dariah.eu/tei-conf/" "Mozilla/5.0 (Windows NT 5.1; rv:24.0) Gecko/20100101 Firefox/24.0"
194.95.188.5 - - [08/Oct/2013:16:40:32 +0200] "GET /tei-conf/net/d3.v3.js HTTP/1.1" 200 314783 "http://fontane-nb.dariah.eu/tei-conf/net/" "Mozilla/5.0 (Windows NT 5.1; rv:24.0) Gecko/20100101 Firefox/24.0"
194.95.188.5 - - [08/Oct/2013:16:40:32 +0200] "GET /tei-conf/net/c07.json HTTP/1.1" 200 40459 "http://fontane-nb.dariah.eu/tei-conf/net/" "Mozilla/5.0 (Windows NT 5.1; rv:24.0) Gecko/20100101 Firefox/24.0"
